<mxfile host="app.diagrams.net" modified="2023-09-30T03:39:15.079Z" agent="Mozilla/5.0 (Windows NT 10.0; Win64; x64) AppleWebKit/537.36 (KHTML, like Gecko) Chrome/117.0.0.0 Safari/537.36" version="22.0.0" etag="vvHNO2uOzkE_k8OogZMR" type="gitlab">
  <diagram name="Page-1" id="1mO7kBbUeE3If8SSWIqQ">
    <mxGraphModel>
      <root>
        <mxCell id="0" />
        <mxCell id="1" parent="0" />
      </root>
    </mxGraphModel>
  </diagram>
</mxfile>
